{
  "id": "5_2_5MM_JC_1BS",
  "type": "BIRTHSTONE",
  "slots": [
    {
      "choiceRequired": true,
      "slotCount": 1,
      "multiplier": 1,
      "componentGroupReference": "5_2_5MM_JC_BS",
      "displayName": "Gem1"
    },
    {
      "choiceRequired": true,
      "slotCount": 1,
      "multiplier": 1,
      "componentGroupReference": "RING_SIZE_STACK_2_5MM",
      "displayName": "RingSize"
    }
  ],
  "referencedComponentGroups": {
    "RING_SIZE_STACK_2_5MM": [
      {
        "sku": "648763",
        "description": "Stack Ring Size 5",
        "shortDescription": "Size 5"
      },
      {
        "sku": "648776",
        "description": "Stack Ring Size 6",
        "shortDescription": "Size 6"
      },
      {
        "sku": "648789",
        "description": "Stack Ring Size 7",
        "shortDescription": "Size 7"
      },
      {
        "sku": "648802",
        "description": "Stack Ring Size 9",
        "shortDescription": "Size 9"
      }
    ],
    "5_2_5MM_JC_BS": [
      {
        "sku": "633600",
        "description": "January",
        "shortDescription": "Jan"
      },
      {
        "sku": "633613",
        "description": "February",
        "shortDescription": "Feb"
      },
      {
        "sku": "633626",
        "description": "March",
        "shortDescription": "Mar"
      },
      {
        "sku": "633639",
        "description": "April",
        "shortDescription": "Apr"
      },
      {
        "sku": "633642",
        "description": "May",
        "shortDescription": "May"
      },
      {
        "sku": "633655",
        "description": "June",
        "shortDescription": "Jun"
      },
      {
        "sku": "633668",
        "description": "July",
        "shortDescription": "Jul"
      },
      {
        "sku": "633671",
        "description": "August",
        "shortDescription": "Aug"
      },
      {
        "sku": "633684",
        "description": "September",
        "shortDescription": "Sep"
      },
      {
        "sku": "633697",
        "description": "October",
        "shortDescription": "Oct"
      },
      {
        "sku": "633707",
        "description": "November",
        "shortDescription": "Nov"
      },
      {
        "sku": "633710",
        "description": "December",
        "shortDescription": "Dec"
      }
    ]
  }
}